^C:\USERS\USER\DOCUMENTS\STATSPORTS-TEST-APP\STATSPORTS-DFU\STATSPORTS-DFU\STDAFX.CPP
/c /I.\GENERATEDFILES /I. /ID:\QT_ENV\5.10.1\MSVC2017_64\INCLUDE /I.\GENERATEDFILES\DEBUG /ID:\QT_ENV\5.10.1\MSVC2017_64\INCLUDE\QTCORE /ID:\QT_ENV\5.10.1\MSVC2017_64\INCLUDE\QTGUI /ID:\QT_ENV\5.10.1\MSVC2017_64\INCLUDE\QTANGLE /ID:\QT_ENV\5.10.1\MSVC2017_64\INCLUDE\QTWIDGETS /Zi /nologo /W1 /WX- /diagnostics:classic /Od /D UNICODE /D _UNICODE /D WIN32 /D WIN64 /D QT_DLL /D QT_CORE_LIB /D QT_GUI_LIB /D QT_WIDGETS_LIB /Gm- /EHsc /MDd /GS /fp:precise /Zc:wchar_t /Zc:forScope /Zc:inline /Yc"stdafx.h" /Fp"X64\DEBUG\STATSPORTS-DFU.PCH" /Fo"X64\DEBUG\\" /Fd"X64\DEBUG\VC141.PDB" /Gd /TP C:\USERS\USER\DOCUMENTS\STATSPORTS-TEST-APP\STATSPORTS-DFU\STATSPORTS-DFU\STDAFX.CPP
^C:\USERS\USER\DOCUMENTS\STATSPORTS-TEST-APP\STATSPORTS-DFU\STATSPORTS-DFU\DOWNLOADMANAGER\DOWNLOADMANAGER_CPP\DOWNLOADMANAGER.CPP
/c /I.\GENERATEDFILES /I. /ID:\QT_ENV\5.10.1\MSVC2017_64\INCLUDE /I.\GENERATEDFILES\DEBUG /ID:\QT_ENV\5.10.1\MSVC2017_64\INCLUDE\QTCORE /ID:\QT_ENV\5.10.1\MSVC2017_64\INCLUDE\QTGUI /ID:\QT_ENV\5.10.1\MSVC2017_64\INCLUDE\QTANGLE /ID:\QT_ENV\5.10.1\MSVC2017_64\INCLUDE\QTWIDGETS /Zi /nologo /W1 /WX- /diagnostics:classic /Od /D UNICODE /D _UNICODE /D WIN32 /D WIN64 /D QT_DLL /D QT_CORE_LIB /D QT_GUI_LIB /D QT_WIDGETS_LIB /Gm- /EHsc /MDd /GS /fp:precise /Zc:wchar_t /Zc:forScope /Zc:inline /Yu"stdafx.h" /Fp"X64\DEBUG\STATSPORTS-DFU.PCH" /Fo"X64\DEBUG\\" /Fd"X64\DEBUG\VC141.PDB" /Gd /TP C:\USERS\USER\DOCUMENTS\STATSPORTS-TEST-APP\STATSPORTS-DFU\STATSPORTS-DFU\DOWNLOADMANAGER\DOWNLOADMANAGER_CPP\DOWNLOADMANAGER.CPP
^C:\USERS\USER\DOCUMENTS\STATSPORTS-TEST-APP\STATSPORTS-DFU\STATSPORTS-DFU\DOWNLOADMANAGER\DOWNLOADMANAGER_CPP\DOWNLOADTHREAD.CPP
/c /I.\GENERATEDFILES /I. /ID:\QT_ENV\5.10.1\MSVC2017_64\INCLUDE /I.\GENERATEDFILES\DEBUG /ID:\QT_ENV\5.10.1\MSVC2017_64\INCLUDE\QTCORE /ID:\QT_ENV\5.10.1\MSVC2017_64\INCLUDE\QTGUI /ID:\QT_ENV\5.10.1\MSVC2017_64\INCLUDE\QTANGLE /ID:\QT_ENV\5.10.1\MSVC2017_64\INCLUDE\QTWIDGETS /Zi /nologo /W1 /WX- /diagnostics:classic /Od /D UNICODE /D _UNICODE /D WIN32 /D WIN64 /D QT_DLL /D QT_CORE_LIB /D QT_GUI_LIB /D QT_WIDGETS_LIB /Gm- /EHsc /MDd /GS /fp:precise /Zc:wchar_t /Zc:forScope /Zc:inline /Yu"stdafx.h" /Fp"X64\DEBUG\STATSPORTS-DFU.PCH" /Fo"X64\DEBUG\\" /Fd"X64\DEBUG\VC141.PDB" /Gd /TP C:\USERS\USER\DOCUMENTS\STATSPORTS-TEST-APP\STATSPORTS-DFU\STATSPORTS-DFU\DOWNLOADMANAGER\DOWNLOADMANAGER_CPP\DOWNLOADTHREAD.CPP
^C:\USERS\USER\DOCUMENTS\STATSPORTS-TEST-APP\STATSPORTS-DFU\STATSPORTS-DFU\MAIN.CPP
/c /I.\GENERATEDFILES /I. /ID:\QT_ENV\5.10.1\MSVC2017_64\INCLUDE /I.\GENERATEDFILES\DEBUG /ID:\QT_ENV\5.10.1\MSVC2017_64\INCLUDE\QTCORE /ID:\QT_ENV\5.10.1\MSVC2017_64\INCLUDE\QTGUI /ID:\QT_ENV\5.10.1\MSVC2017_64\INCLUDE\QTANGLE /ID:\QT_ENV\5.10.1\MSVC2017_64\INCLUDE\QTWIDGETS /Zi /nologo /W1 /WX- /diagnostics:classic /Od /D UNICODE /D _UNICODE /D WIN32 /D WIN64 /D QT_DLL /D QT_CORE_LIB /D QT_GUI_LIB /D QT_WIDGETS_LIB /Gm- /EHsc /MDd /GS /fp:precise /Zc:wchar_t /Zc:forScope /Zc:inline /Yu"stdafx.h" /Fp"X64\DEBUG\STATSPORTS-DFU.PCH" /Fo"X64\DEBUG\\" /Fd"X64\DEBUG\VC141.PDB" /Gd /TP C:\USERS\USER\DOCUMENTS\STATSPORTS-TEST-APP\STATSPORTS-DFU\STATSPORTS-DFU\MAIN.CPP
^C:\USERS\USER\DOCUMENTS\STATSPORTS-TEST-APP\STATSPORTS-DFU\STATSPORTS-DFU\STATSPORTSDFU.CPP
/c /I.\GENERATEDFILES /I. /ID:\QT_ENV\5.10.1\MSVC2017_64\INCLUDE /I.\GENERATEDFILES\DEBUG /ID:\QT_ENV\5.10.1\MSVC2017_64\INCLUDE\QTCORE /ID:\QT_ENV\5.10.1\MSVC2017_64\INCLUDE\QTGUI /ID:\QT_ENV\5.10.1\MSVC2017_64\INCLUDE\QTANGLE /ID:\QT_ENV\5.10.1\MSVC2017_64\INCLUDE\QTWIDGETS /Zi /nologo /W1 /WX- /diagnostics:classic /Od /D UNICODE /D _UNICODE /D WIN32 /D WIN64 /D QT_DLL /D QT_CORE_LIB /D QT_GUI_LIB /D QT_WIDGETS_LIB /Gm- /EHsc /MDd /GS /fp:precise /Zc:wchar_t /Zc:forScope /Zc:inline /Yu"stdafx.h" /Fp"X64\DEBUG\STATSPORTS-DFU.PCH" /Fo"X64\DEBUG\\" /Fd"X64\DEBUG\VC141.PDB" /Gd /TP C:\USERS\USER\DOCUMENTS\STATSPORTS-TEST-APP\STATSPORTS-DFU\STATSPORTS-DFU\STATSPORTSDFU.CPP
^C:\USERS\USER\DOCUMENTS\STATSPORTS-TEST-APP\STATSPORTS-DFU\STATSPORTS-DFU\GENERATEDFILES\DEBUG\MOC_STATSPORTSDFU.CPP
/c /I.\GENERATEDFILES /I. /ID:\QT_ENV\5.10.1\MSVC2017_64\INCLUDE /I.\GENERATEDFILES\DEBUG /ID:\QT_ENV\5.10.1\MSVC2017_64\INCLUDE\QTCORE /ID:\QT_ENV\5.10.1\MSVC2017_64\INCLUDE\QTGUI /ID:\QT_ENV\5.10.1\MSVC2017_64\INCLUDE\QTANGLE /ID:\QT_ENV\5.10.1\MSVC2017_64\INCLUDE\QTWIDGETS /Zi /nologo /W1 /WX- /diagnostics:classic /Od /D UNICODE /D _UNICODE /D WIN32 /D WIN64 /D QT_DLL /D QT_CORE_LIB /D QT_GUI_LIB /D QT_WIDGETS_LIB /Gm- /EHsc /MDd /GS /fp:precise /Zc:wchar_t /Zc:forScope /Zc:inline /Yu"stdafx.h" /Fp"X64\DEBUG\STATSPORTS-DFU.PCH" /Fo"X64\DEBUG\\" /Fd"X64\DEBUG\VC141.PDB" /Gd /TP C:\USERS\USER\DOCUMENTS\STATSPORTS-TEST-APP\STATSPORTS-DFU\STATSPORTS-DFU\GENERATEDFILES\DEBUG\MOC_STATSPORTSDFU.CPP
^C:\USERS\USER\DOCUMENTS\STATSPORTS-TEST-APP\STATSPORTS-DFU\STATSPORTS-DFU\GENERATEDFILES\QRC_STATSPORTSDFU.CPP
/c /I.\GENERATEDFILES /I. /ID:\QT_ENV\5.10.1\MSVC2017_64\INCLUDE /I.\GENERATEDFILES\DEBUG /ID:\QT_ENV\5.10.1\MSVC2017_64\INCLUDE\QTCORE /ID:\QT_ENV\5.10.1\MSVC2017_64\INCLUDE\QTGUI /ID:\QT_ENV\5.10.1\MSVC2017_64\INCLUDE\QTANGLE /ID:\QT_ENV\5.10.1\MSVC2017_64\INCLUDE\QTWIDGETS /Zi /nologo /W1 /WX- /diagnostics:classic /Od /D UNICODE /D _UNICODE /D WIN32 /D WIN64 /D QT_DLL /D QT_CORE_LIB /D QT_GUI_LIB /D QT_WIDGETS_LIB /Gm- /EHsc /MDd /GS /fp:precise /Zc:wchar_t /Zc:forScope /Zc:inline /Fo"X64\DEBUG\\" /Fd"X64\DEBUG\VC141.PDB" /Gd /TP C:\USERS\USER\DOCUMENTS\STATSPORTS-TEST-APP\STATSPORTS-DFU\STATSPORTS-DFU\GENERATEDFILES\QRC_STATSPORTSDFU.CPP
