^statsportsdfu.h
C:\Users\User\Documents\statsports-test-app\StatSports-DFU\StatSports-DFU\GeneratedFiles\Debug\moc_statsportsdfu.cpp
^statsportsdfu.qrc
C:\Users\User\Documents\statsports-test-app\StatSports-DFU\StatSports-DFU\GeneratedFiles\qrc_statsportsdfu.cpp
^statsportsdfu.ui
C:\Users\User\Documents\statsports-test-app\StatSports-DFU\StatSports-DFU\GeneratedFiles\ui_statsportsdfu.h
